[TRACE] 2019-11-22 00:34:10.971 Application:9 - This is trace message 
[DEBUG] 2019-11-22 00:34:10.975 Application:10 - This is debug message 
[INFO ] 2019-11-22 00:34:10.976 Application:11 - This is info message 
[WARN ] 2019-11-22 00:34:10.976 Application:12 - This is warn message 
[ERROR] 2019-11-22 00:34:10.977 Application:13 - This is error message 
[FATAL] 2019-11-22 00:34:10.978 Application:14 - This is fatal message 
[TRACE] 2019-11-22 00:35:11.828 Application:9 - This is trace message 
[DEBUG] 2019-11-22 00:35:11.833 Application:10 - This is debug message 
[INFO ] 2019-11-22 00:35:11.833 Application:11 - This is info message 
[WARN ] 2019-11-22 00:35:11.834 Application:12 - This is warn message 
[ERROR] 2019-11-22 00:35:11.835 Application:13 - This is error message 
[FATAL] 2019-11-22 00:35:11.835 Application:14 - This is fatal message 
[TRACE] 2019-11-22 00:36:32.509 Application:9 - This is trace message 
[DEBUG] 2019-11-22 00:36:32.516 Application:10 - This is debug message 
[INFO ] 2019-11-22 00:36:32.517 Application:11 - This is info message 
[WARN ] 2019-11-22 00:36:32.519 Application:12 - This is warn message 
[ERROR] 2019-11-22 00:36:32.521 Application:13 - This is error message 
[FATAL] 2019-11-22 00:36:32.521 Application:14 - This is fatal message 
[TRACE] 2019-11-22 00:36:55.748 Application:9 - This is trace message 
[DEBUG] 2019-11-22 00:36:55.754 Application:10 - This is debug message 
[INFO ] 2019-11-22 00:36:55.755 Application:11 - This is info message 
[WARN ] 2019-11-22 00:36:55.756 Application:12 - This is warn message 
[ERROR] 2019-11-22 00:36:55.757 Application:13 - This is error message 
[FATAL] 2019-11-22 00:36:55.757 Application:14 - This is fatal message 
[TRACE] 2019-11-22 00:37:08.705 Application:9 - This is trace message 
[DEBUG] 2019-11-22 00:37:08.712 Application:10 - This is debug message 
[INFO ] 2019-11-22 00:37:08.713 Application:11 - This is info message 
[WARN ] 2019-11-22 00:37:08.714 Application:12 - This is warn message 
[ERROR] 2019-11-22 00:37:08.715 Application:13 - This is error message 
[FATAL] 2019-11-22 00:37:08.715 Application:14 - This is fatal message 
[TRACE] 2019-11-22 00:38:41.399 Application:9 - This is trace message 
[DEBUG] 2019-11-22 00:38:41.474 Application:10 - This is debug message 
[INFO ] 2019-11-22 00:38:41.475 Application:11 - This is info message 
[WARN ] 2019-11-22 00:38:41.476 Application:12 - This is warn message 
[ERROR] 2019-11-22 00:38:41.477 Application:13 - This is error message 
[FATAL] 2019-11-22 00:38:41.478 Application:14 - This is fatal message 
[TRACE] 2019-11-22 00:46:17.705 Application:9 - This is trace message 
[DEBUG] 2019-11-22 00:46:17.713 Application:10 - This is debug message 
[INFO ] 2019-11-22 00:46:17.714 Application:11 - This is info message 
[WARN ] 2019-11-22 00:46:17.715 Application:12 - This is warn message 
[ERROR] 2019-11-22 00:46:17.717 Application:13 - This is error message 
[FATAL] 2019-11-22 00:46:17.718 Application:14 - This is fatal message 
[TRACE] 2019-11-22 00:48:00.782 Application:9 - This is trace message 
[DEBUG] 2019-11-22 00:48:00.786 Application:10 - This is debug message 
[INFO ] 2019-11-22 00:48:00.787 Application:11 - This is info message 
[WARN ] 2019-11-22 00:48:00.788 Application:12 - This is warn message 
[ERROR] 2019-11-22 00:48:00.789 Application:13 - This is error message 
[FATAL] 2019-11-22 00:48:06.051 Application:14 - This is fatal message 
[TRACE] 2019-11-22 00:48:56.599 Application:9 - This is trace message 
[DEBUG] 2019-11-22 00:48:56.605 Application:10 - This is debug message 
[INFO ] 2019-11-22 00:48:56.606 Application:11 - This is info message 
[WARN ] 2019-11-22 00:48:56.607 Application:12 - This is warn message 
[ERROR] 2019-11-22 00:48:56.608 Application:13 - This is error message 
[FATAL] 2019-11-22 00:48:59.892 Application:14 - This is fatal message 
[TRACE] 2019-11-22 00:51:02.481 Application:9 - This is trace message 
[DEBUG] 2019-11-22 00:51:02.489 Application:10 - This is debug message 
[INFO ] 2019-11-22 00:51:02.491 Application:11 - This is info message 
[WARN ] 2019-11-22 00:51:02.492 Application:12 - This is warn message 
[ERROR] 2019-11-22 00:51:02.495 Application:13 - This is error message 
[FATAL] 2019-11-22 00:51:05.861 Application:14 - This is fatal message 
[TRACE] 2019-11-22 00:55:12.129 Application:9 - This is trace message 
[DEBUG] 2019-11-22 00:55:12.136 Application:10 - This is debug message 
[INFO ] 2019-11-22 00:55:12.137 Application:11 - This is info message 
[WARN ] 2019-11-22 00:55:12.138 Application:12 - This is warn message 
[ERROR] 2019-11-22 00:55:12.139 Application:13 - This is error message 
[FATAL] 2019-11-22 00:55:15.531 Application:14 - This is fatal message 
[TRACE] 2019-11-22 00:55:50.002 Application:9 - This is trace message 
[DEBUG] 2019-11-22 00:55:50.009 Application:10 - This is debug message 
[INFO ] 2019-11-22 00:55:50.011 Application:11 - This is info message 
[WARN ] 2019-11-22 00:55:50.014 Application:12 - This is warn message 
[ERROR] 2019-11-22 00:55:50.016 Application:13 - This is error message 
[FATAL] 2019-11-22 00:55:53.408 Application:14 - This is fatal message 
[TRACE] 2019-11-22 01:01:00.374 Application:9 - This is trace message 
[DEBUG] 2019-11-22 01:01:00.384 Application:10 - This is debug message 
[INFO ] 2019-11-22 01:01:00.385 Application:11 - This is info message 
[WARN ] 2019-11-22 01:01:00.386 Application:12 - This is warn message 
[ERROR] 2019-11-22 01:01:00.388 Application:13 - This is error message 
[FATAL] 2019-11-22 01:01:21.518 Application:14 - This is fatal message 
[TRACE] 2019-11-22 01:03:09.521 Application:9 - This is trace message 
[DEBUG] 2019-11-22 01:03:09.526 Application:10 - This is debug message 
[INFO ] 2019-11-22 01:03:09.527 Application:11 - This is info message 
[WARN ] 2019-11-22 01:03:09.527 Application:12 - This is warn message 
[ERROR] 2019-11-22 01:03:09.528 Application:13 - This is error message 
[FATAL] 2019-11-22 01:03:14.130 Application:14 - This is fatal message 
[TRACE] 2019-11-22 01:04:38.279 Application:9 - This is trace message 
[DEBUG] 2019-11-22 01:04:38.286 Application:10 - This is debug message 
[INFO ] 2019-11-22 01:04:38.287 Application:11 - This is info message 
[WARN ] 2019-11-22 01:04:38.288 Application:12 - This is warn message 
[ERROR] 2019-11-22 01:04:38.289 Application:13 - This is error message 
[FATAL] 2019-11-22 01:04:41.658 Application:14 - This is fatal message 
[TRACE] 2019-11-22 01:23:39.255 Application:9 - This is trace message 
[DEBUG] 2019-11-22 01:23:39.329 Application:10 - This is debug message 
[INFO ] 2019-11-22 01:23:39.330 Application:11 - This is info message 
[WARN ] 2019-11-22 01:23:39.330 Application:12 - This is warn message 
[ERROR] 2019-11-22 01:23:39.331 Application:13 - This is error message 
[FATAL] 2019-11-22 01:23:43.787 Application:14 - This is fatal message 
[TRACE] 2019-11-22 01:25:12.422 Application:9 - This is trace message 
[DEBUG] 2019-11-22 01:25:12.428 Application:10 - This is debug message 
[INFO ] 2019-11-22 01:25:12.429 Application:11 - This is info message 
[WARN ] 2019-11-22 01:25:12.430 Application:12 - This is warn message 
[ERROR] 2019-11-22 01:25:12.431 Application:13 - This is error message 
[FATAL] 2019-11-22 01:25:15.807 Application:14 - This is fatal message 
[TRACE] 2019-11-22 01:32:58.994 Application:9 - This is trace message 
[DEBUG] 2019-11-22 01:32:59.072 Application:10 - This is debug message 
[INFO ] 2019-11-22 01:32:59.073 Application:11 - This is info message 
[WARN ] 2019-11-22 01:32:59.073 Application:12 - This is warn message 
[ERROR] 2019-11-22 01:32:59.074 Application:13 - This is error message 
[FATAL] 2019-11-22 01:33:06.194 Application:14 - This is fatal message 
[TRACE] 2019-11-22 01:35:59.174 Application:9 - This is trace message 
[DEBUG] 2019-11-22 01:35:59.182 Application:10 - This is debug message 
[INFO ] 2019-11-22 01:35:59.184 Application:11 - This is info message 
[WARN ] 2019-11-22 01:35:59.185 Application:12 - This is warn message 
[ERROR] 2019-11-22 01:35:59.186 Application:13 - This is error message 
[FATAL] 2019-11-22 01:36:03.385 Application:14 - This is fatal message 
[TRACE] 2019-11-22 01:41:49.492 Application:9 - This is trace message 
[DEBUG] 2019-11-22 01:41:49.499 Application:10 - This is debug message 
[INFO ] 2019-11-22 01:41:49.500 Application:11 - This is info message 
[WARN ] 2019-11-22 01:41:49.501 Application:12 - This is warn message 
[ERROR] 2019-11-22 01:41:49.502 Application:13 - This is error message 
[FATAL] 2019-11-22 01:41:53.723 Application:14 - This is fatal message 
[TRACE] 2019-11-22 01:46:00.669 Application:9 - This is trace message 
[DEBUG] 2019-11-22 01:46:00.674 Application:10 - This is debug message 
[INFO ] 2019-11-22 01:46:00.675 Application:11 - This is info message 
[WARN ] 2019-11-22 01:46:00.676 Application:12 - This is warn message 
[ERROR] 2019-11-22 01:46:00.677 Application:13 - This is error message 
[FATAL] 2019-11-22 01:46:05.165 Application:14 - This is fatal message 
[TRACE] 2019-11-22 01:47:28.858 Application:9 - This is trace message 
[DEBUG] 2019-11-22 01:47:28.862 Application:10 - This is debug message 
[INFO ] 2019-11-22 01:47:28.863 Application:11 - This is info message 
[WARN ] 2019-11-22 01:47:28.863 Application:12 - This is warn message 
[ERROR] 2019-11-22 01:47:28.864 Application:13 - This is error message 
[FATAL] 2019-11-22 01:47:33.028 Application:14 - This is fatal message 
